<svg xmlns="http://www.w3.org/2000/svg" viewBox="0 0 499.99999 407.30863">
  <defs>
    <clipPath id="a">
      <path d="M0 298.963h175.727V0H0v298.963z"/>
    </clipPath>
    <linearGradient id="b" x2="1" gradientTransform="matrix(2.9176035,5.0534374,-5.0534374,2.9176035,192.81972,372.60482)" gradientUnits="userSpaceOnUse">
      <stop offset="0" stop-color="#c9c9c9"/>
      <stop offset="1" stop-color="#a8a8a8"/>
    </linearGradient>
    <clipPath id="c">
      <path d="M0 298.963h175.727V0H0v298.963z"/>
    </clipPath>
    <linearGradient id="d" x2="1" gradientTransform="matrix(90.814894,194.75316,-194.75316,90.814894,71.856057,12.466443)" gradientUnits="userSpaceOnUse">
      <stop offset="0" stop-color="#7c7f81"/>
      <stop offset=".0152" stop-color="#7c7e81"/>
      <stop offset=".625" stop-color="#676b7c"/>
      <stop offset="1" stop-color="#60657a"/>
    </linearGradient>
    <clipPath id="e">
      <path d="M0 298.963h175.727V0H0v298.963z"/>
    </clipPath>
    <linearGradient id="f" x2="1" gradientTransform="matrix(2.7807054,5.963106,-5.963106,2.7807054,30.462493,93.579924)" gradientUnits="userSpaceOnUse">
      <stop offset="0" stop-color="#ef4237"/>
      <stop offset="1" stop-color="#cd3634"/>
    </linearGradient>
    <clipPath id="g">
      <path d="M0 298.963h175.727V0H0v298.963z"/>
    </clipPath>
    <clipPath id="h">
      <path d="M0 191.671h167.329V0H0v191.671z"/>
    </clipPath>
  </defs>
  <g clip-path="url(#a)" transform="matrix(1.3624053,0,0,-1.3624053,0,407.30864)">
    <path fill="#bdbec0" d="M25.9824 296.2219c-.564 1.598-2.084 2.741-3.873 2.741-1.79 0-3.309-1.143-3.873-2.741h7.746z"/>
    <path fill="#a3a3a3" d="M162.958 296.5764H12.77L.763 284.1874v-3.811h174.203v3.811l-12.008 12.389z"/>
    <path fill="#d9d9d9" d="M12.77 297.3391H7.624c-4.211 0-7.624-3.413-7.624-7.624v-5.527h12.77v13.151zm155.3335 0h-5.146v-13.151h12.77v5.527c0 4.211-3.413 7.624-7.624 7.624m-145.2324 0h-7.433v-13.151h144.852v13.151H22.8711zM88.0547.0095h47.267s14.484-.736 27.445 10.734c12.961 11.471 12.961 29.866 12.961 29.866v240.911H-.0003V7.6345c0-4.211 3.413-7.625 7.624-7.625h80.431z"/>
  </g>
  <path fill="url(#b)" d="M161.61396 390.52926l62.48808-35.71546-62.48808 35.71546z"/>
  <g clip-path="url(#c)" transform="matrix(1.3624053,0,0,-1.3624053,0,407.30864)">
    <path fill="#b2b2b2" d="M162.7666 10.7439c12.961 11.471 12.961 29.865 12.961 29.865v4.262L97.2886.0099h38.033s14.484-.737 27.445 10.734"/>
    <path fill="#39509c" d="M63.8203 39.4197v.002-.002z"/>
    <path fill="#bcbcbc" d="M35.4248 122.8118c15.438 0 27.955-12.517 27.955-27.954 0-15.44-12.517-27.954-27.955-27.954-15.439 0-27.954 12.514-27.954 27.954 0 15.437 12.515 27.954 27.954 27.954"/>
    <path fill="#d9d9d9" d="M9.4843 94.6995l2.708-1.721v3.378l-2.708-1.657zm51.8809 0l-2.708-1.721v3.378l2.708-1.657zM35.3935 68.3459l1.72 2.708h-3.377l1.657-2.708zm0 53.0245l1.72-2.708h-3.377l1.657 2.708z"/>
    <path fill="#3d3d3d" d="M55.3818 102.9895h-11.635v12.395c0 1.162-.94 2.101-2.099 2.101h-11.683c-1.159 0-2.1-.939-2.1-2.101v-12.395h-12.396c-1.16 0-2.101-.94-2.101-2.101v-11.682c0-1.158.941-2.1 2.101-2.1h12.396v-12.778c0-1.16.941-2.1 2.1-2.1h11.683c1.159 0 2.099.94 2.099 2.1v12.778h11.635c1.159 0 2.101.942 2.101 2.1v11.682c-.001 1.16-.941 2.101-2.101 2.101"/>
    <path fill="#191919" d="M54.0898 101.3752h-11.994v12.605c0 .929-.754 1.684-1.683 1.684h-9.364c-.93 0-1.683-.755-1.683-1.684v-12.605h-12.605c-.93 0-1.683-.754-1.683-1.684v-9.363c0-.928.753-1.682 1.683-1.682h12.605v-12.912c0-.93.754-1.683 1.683-1.683h9.364c.929 0 1.683.753 1.683 1.683v12.912h11.994c.929 0 1.684.754 1.684 1.682v9.363c-.001.93-.755 1.684-1.684 1.684"/>
    <path fill="#bcbcbc" d="M122.6552 74.5403c-5.735.087-11.204 3.358-13.826 8.892-3.679 7.761-.37 17.036 7.392 20.716l30.803 14.602c7.761 3.68 17.035.37 20.714-7.392 3.681-7.761.372-17.036-7.391-20.716l-30.802-14.602c-2.229-1.056-4.581-1.535-6.89-1.5"/>
    <path fill="#818285" d="M123.3779 100.7395c-5.798 0-10.515-4.716-10.515-10.514 0-5.797 4.717-10.513 10.515-10.513 5.798 0 10.515 4.716 10.515 10.513 0 5.798-4.717 10.514-10.515 10.514"/>
    <path fill="#9b2063" d="M123.3779 101.0257c-5.955 0-10.801-4.844-10.801-10.8 0-5.955 4.846-10.8 10.801-10.8 5.956 0 10.801 4.845 10.801 10.8 0 5.956-4.845 10.8-10.801 10.8"/>
    <path fill="#818285" d="M152.8564 114.4631c-5.797 0-10.514-4.717-10.514-10.515 0-5.796 4.717-10.514 10.514-10.514 5.798 0 10.515 4.718 10.515 10.514 0 5.798-4.717 10.515-10.515 10.515"/>
    <path fill="#9b2063" d="M152.8564 114.7483c-5.955 0-10.8-4.844-10.8-10.8 0-5.955 4.845-10.8 10.8-10.8 5.956 0 10.801 4.845 10.801 10.8 0 5.956-4.845 10.8-10.801 10.8"/>
    <path fill="#939598" d="M73.8476 56.2678c-.587 1.163-1.761 1.885-3.064 1.885-.54 0-1.06-.124-1.545-.37l-14.423-7.287c-.818-.412-1.426-1.121-1.712-1.99-.286-.871-.216-1.803.197-2.619.587-1.162 1.761-1.883 3.065-1.883.532 0 1.066.127 1.544.367l14.423 7.287c.819.414 1.426 1.121 1.712 1.992.286.869.216 1.801-.197 2.618m29.7324 0c-.587 1.163-1.761 1.885-3.064 1.885-.54 0-1.06-.124-1.545-.37l-14.423-7.287c-.818-.412-1.426-1.121-1.712-1.99-.286-.871-.216-1.803.197-2.619.587-1.162 1.761-1.883 3.065-1.883.532 0 1.067.127 1.544.367l14.424 7.287c.818.414 1.425 1.121 1.711 1.992.286.869.217 1.801-.197 2.618"/>
  </g>
  <path fill="url(#d)" d="M24.927929 35.102248c-4.015008 0-7.271157 3.256148-7.271157 7.271157V185.19162c0 4.01365 3.256149 7.27116 7.271157 7.27116H186.95879c2.14442 0 15.37474-1.00409 24.06416-9.69488 8.68942-8.69078 9.52049-19.83389 9.52049-24.0628V42.373405c0-4.015009-3.25479-7.271157-7.27116-7.271157H24.927929z"/>
  <g clip-path="url(#e)" transform="matrix(1.3624053,0,0,-1.3624053,0,407.30864)">
    <path fill="#c2aa33" d="M39.263 259.983h95.678v-88.817H39.263v88.817z"/>
  </g>
  <path fill="url(#f)" d="M28.562826 96.561711c0 1.817449 1.47276 3.288846 3.290209 3.288846 1.816086 0 3.288846-1.471397 3.288846-3.288846 0-1.817449-1.47276-3.288846-3.288846-3.288846-1.817449 0-3.290209 1.471397-3.290209 3.288846"/>
  <g clip-path="url(#g)" transform="matrix(1.3624053,0,0,-1.3624053,0,407.30864)">
    <path fill="#c7c7c7" d="M88.3584 7.1248c-.012.049-.024.098-.033.16l-.206-.041c.065-.06.144-.101.239-.119"/>
    <path fill="#d4d4d4" d="M124.1089 8.7419l-2.659-1.49.957-1.774c.401-.738 1.326-1.017 2.067-.615.74.4 1.016 1.326.616 2.068l-.981 1.811z"/>
    <path fill="#212121" d="M40.4126 73.8606h-9.364c-1.033 0-1.874.84-1.874 1.873v12.721h-12.414c-1.032 0-1.873.841-1.873 1.874v9.363c0 1.034.839 1.874 1.873 1.874h12.414v12.414c0 1.034.841 1.875 1.874 1.875h9.364c1.033 0 1.874-.841 1.874-1.875v-12.414h11.803c1.033 0 1.874-.84 1.874-1.874v-9.363c0-1.033-.841-1.873-1.874-1.873h-11.803v-12.721c0-1.034-.84-1.874-1.874-1.874"/>
    <path fill="#828282" d="M123.5063 4.9646c-.542 0-1.067.291-1.342.801l-12.706 23.508c-.401.74-.124 1.666.616 2.066.74.4 1.666.125 2.066-.615l12.706-23.508c.402-.74.125-1.666-.616-2.067-.23-.125-.479-.185-.724-.185m8.6406 4.957c-.542 0-1.067.289-1.342.799l-12.706 23.508c-.401.74-.125 1.666.616 2.066.741.402 1.666.125 2.066-.615l12.706-23.508c.401-.74.125-1.666-.616-2.066-.23-.125-.479-.184-.724-.184m8.6402 4.9551c-.542 0-1.067.291-1.342.801l-12.706 23.506c-.4.74-.125 1.666.616 2.068.741.4 1.665.123 2.066-.617l12.707-23.506c.4-.742.125-1.668-.616-2.066-.231-.127-.48-.186-.725-.186m8.6406 4.957c-.543 0-1.067.289-1.342.799l-12.706 23.506c-.401.742-.125 1.668.616 2.068.741.401 1.665.123 2.066-.617l12.706-23.506c.401-.74.125-1.666-.615-2.066-.232-.127-.48-.184-.725-.184m8.6406 4.9551c-.543 0-1.067.289-1.342.799l-12.706 23.506c-.401.742-.125 1.668.615 2.068.742.4 1.667.123 2.067-.615l12.706-23.508c.401-.74.125-1.666-.616-2.066-.231-.125-.479-.184-.724-.184m8.6402 4.9551c-.542 0-1.067.289-1.342.799l-12.706 23.508c-.401.739-.124 1.665.616 2.067.741.4 1.666.123 2.066-.617l12.706-23.507c.401-.74.125-1.666-.616-2.066-.231-.125-.479-.184-.724-.184"/>
  </g>
  <path fill="#a3a3a3" d="M498.17314 254.39978h-171.2245v-34.01643h171.2245v34.01643z"/>
  <g clip-path="url(#h)" transform="matrix(1.0451161,0,0,-1.0451161,325.12177,407.30862)">
    <path fill="#bcbcbc" d="M144.5591 176.2759h22.77v4.907c0 .723-.588 1.311-1.311 1.311h-13.563v7.867c0 .724-.586 1.311-1.31 1.311H1.3111c-.724 0-1.311-.587-1.311-1.311v-14.085h22.044c-1.408-1.182-2.636-2.571-3.639-4.119H.0001v-2.746h16.935c-.404-.937-.73-1.915-.975-2.925H.0001v-2.666h15.516c-.052-.564-.081-1.134-.081-1.711 0-.638.032-1.271.094-1.894H.0001v-2.803h16.038c.256-.981.595-1.929 1.003-2.84H.0001v-2.739h18.551c.985-1.471 2.175-2.791 3.53-3.923H.0001V1.7359l6.845-1.736h153.639l6.845 1.736v146.174h-22.807c1.354 1.132 2.545 2.452 3.529 3.923h19.278v2.739h-17.766c.406.911.746 1.859 1.002 2.84h16.764v2.803h-16.256c.063.623.095 1.256.095 1.894 0 .577-.03 1.147-.082 1.711h16.243v2.666h-16.686c-.246 1.01-.571 1.988-.975 2.925h17.661v2.746h-19.131c-1.004 1.548-2.231 2.937-3.639 4.119"/>
    <path fill="#a3a3a3" d="M36.2618 144.4883c-9.732 0-17.622 7.889-17.622 17.62 0 9.734 7.89 17.622 17.622 17.622h94.079c9.732 0 17.622-7.888 17.622-17.622 0-9.731-7.89-17.62-17.622-17.62h-94.079zM147.7056 26.8184c0-1.687-1.369-3.058-3.059-3.058H21.5176c-1.689 0-3.059 1.371-3.059 3.058v108.64c0 1.689 1.37 3.059 3.059 3.059h123.129c1.69 0 3.059-1.37 3.059-3.059v-108.64zm-53.4101-6.8067c1.563 0 1.922-1.501.91-2.512-1.856-1.858-11.176-11.833-11.176-11.833s-.438-.491-.947-.491c-.545 0-.947.491-.947.491s-9.32 9.975-11.177 11.833c-1.011 1.011-.652 2.512.911 2.512h22.426zM6.8453 0L.0003 1.735v110.969h6.408c.241 0 .437-.195.437-.436V0zm153.6386 0l6.845 1.735v110.969h-6.408c-.241 0-.437-.195-.437-.436V0z"/>
    <path fill="#bcbcbc" d="M130.0181 158.2349v3.31h-1.236v.443h2.974v-.443h-1.242v-3.31h-.496zm2.625 0v3.753h.748l.888-2.657c.082-.248.141-.433.178-.556.043.137.11.337.201.602l.898 2.611h.668v-3.753h-.478v3.141l-1.091-3.141h-.448l-1.085 3.195v-3.195h-.479z"/>
    <path fill="#bcbcbc" fill-rule="evenodd" d="M94.5376 161.8384c.142.255.289.506.426.763.772 1.459 1.566 2.907 2.3 4.385.382.673.168.635.949.564.499-.045.489-.01.505-.519.035-1.178.086-2.355.128-3.534.019-.5.03-1.002.047-1.503.043-1.155.088-2.311.131-3.466.004-.094.002-.188.002-.295h-1.306c-.069 2.055-.137 4.099-.203 6.141-.025.004-.05.011-.076.018-1.104-2.061-2.21-4.123-3.314-6.185-.026.007-.054.012-.081.02-.517 2.14-1.033 4.281-1.551 6.424-.022 0-.046 0-.07.001-.119-.353-.24-.705-.356-1.057-.572-1.737-1.14-3.474-1.718-5.208-.022-.067-.108-.159-.167-.16-.413-.015-.825-.008-1.272-.008.129.4.249.775.37 1.15.654 2.019 1.309 4.037 1.961 6.055.209.646.416 1.292.616 1.939.042.137.112.186.254.18.25-.011.503-.016.753.001.186.013.259-.056.301-.232.266-1.133.543-2.265.814-3.398.165-.686.327-1.373.491-2.059.021-.005.043-.011.066-.017m16.9122 2.0386c.825.001 1.266.252 1.555.881.294.637.037 1.564-.846 1.576-.19.003-.383 0-.572.021-.225.026-.313-.065-.339-.285-.068-.561-.155-1.12-.235-1.679-.073-.514-.072-.514.437-.514m-.193-4.396c0-.007.002-.015.002-.022.343.023.695.016 1.033.078.72.137 1.279.836 1.247 1.511-.034.759-.616 1.42-1.366 1.506-.4.047-.809.027-1.211.05-.155.007-.209-.058-.228-.199-.052-.395-.114-.787-.169-1.18-.07-.496-.133-.991-.203-1.487-.025-.183.022-.276.232-.26.219.015.442.003.663.003m-2.442-1.223c.463 3.113.923 6.208 1.386 9.32.136.008.26.022.382.022.562.002 1.123 0 1.684 0 .964.001 1.876-.677 2.07-1.619.174-.842.076-1.66-.5-2.36-.074-.089-.141-.186-.221-.295.072-.054.134-.104.196-.151.642-.488 1.002-1.122 1.034-1.94.061-1.559-1.024-2.863-2.585-2.972-1.11-.079-2.229-.033-3.342-.039-.028 0-.055.018-.104.034m13.2004 6.0613c-.034.236-.052.525-.122.802-.133.518-.448.911-.928 1.151-.896.453-2.187-.01-2.779-.812-.444-.602-.717-1.284-.926-1.995-.238-.812-.404-1.626-.297-2.48.115-.913.785-1.617 1.817-1.615.843.003 1.53.393 2.007 1.077.797 1.143 1.163 2.435 1.228 3.872m1.296-.183c-.038-1.13-.361-2.179-.776-3.213-.345-.855-.854-1.588-1.59-2.136-1.201-.893-3.121-.972-4.288.081-.614.554-.936 1.262-1.008 2.077-.098 1.115.14 2.184.511 3.225.26.729.538 1.452 1.018 2.076.639.833 1.484 1.299 2.52 1.444.722.102 1.41.012 2.046-.362.776-.457 1.245-1.141 1.432-2.011.082-.385.093-.787.135-1.181m-41.8116 2.0913c-.881.214-1.745.258-2.597.088-1.344-.267-2.539-.81-3.238-2.081-.558-1.016-.671-2.094-.319-3.206.186-.589.572-1.017 1.12-1.281.852-.413 1.719-.413 2.582-.012.162.076.27.178.283.381.021.307.066.614.117.919.031.182-.044.216-.201.212-.367-.006-.737-.002-1.15-.002.044.34.085.657.128.975.042.31.043.31.357.31.732 0 1.462-.004 2.194.002.152.001.217-.037.193-.201-.14-.97-.271-1.94-.415-2.91-.016-.105-.079-.219-.154-.299-.543-.566-1.243-.802-1.997-.898-.815-.102-1.624-.054-2.375.308-1.17.565-1.886 1.483-2.07 2.785-.131.934-.08 1.857.221 2.754.377 1.121 1.111 1.961 2.086 2.611.815.545 1.711.845 2.68.955.805.092 1.601.064 2.397-.085.345-.064.349-.058.302-.408-.042-.298-.093-.595-.144-.917m24.3798-7.9917h-5.986c.442 3.106.882 6.192 1.322 9.291h4.858c-.063-.389-.12-.771-.195-1.148-.007-.036-.131-.069-.201-.069-.982-.005-1.964-.011-2.946.001-.239.003-.334-.057-.364-.308-.082-.71-.197-1.415-.299-2.122-.009-.07 0-.143 0-.243h.275c.841 0 1.682-.006 2.524.003.194.002.246-.06.212-.244-.065-.347-.116-.695-.177-1.065h-.251c-.848 0-1.698-.004-2.546.005-.189.002-.279-.047-.305-.247-.106-.789-.223-1.573-.344-2.36-.03-.196.032-.254.232-.253 1.373.008 2.746.003 4.119.003h.258c-.065-.429-.125-.832-.186-1.244m-20.1049 6.6738c-.023.002-.045.005-.067.007-.429-.935-.857-1.872-1.285-2.81.057-.029.076-.046.094-.047.532-.002 1.063-.004 1.594-.006.142 0 .143.079.123.194-.099.573-.188 1.149-.286 1.721-.053.314-.114.627-.173.941m2.493-6.689c-.427 0-.838-.004-1.249.006-.04.001-.104.091-.114.145-.13.724-.256 1.451-.371 2.178-.028.183-.1.248-.286.246-.731-.008-1.462-.013-2.192.002-.208.005-.283-.096-.354-.255-.32-.712-.648-1.421-.962-2.136-.053-.122-.117-.162-.246-.16-.411.007-.823.002-1.261.002.244.543.473 1.06.708 1.575.586 1.287 1.178 2.571 1.764 3.858.562 1.233 1.118 2.469 1.688 3.697.038.082.169.16.263.168.271.023.546-.003.819.013.17.009.234-.056.26-.216.129-.785.267-1.57.4-2.355.306-1.792.61-3.586.915-5.38.07-.407.14-.814.207-1.221.009-.047.007-.097.011-.167m34.9772 9.3653c.371 0 .695-.03 1.014.007.394.045.576-.119.746-.466.441-.906.937-1.787 1.414-2.677.016-.031.041-.057.084-.113.166.217.322.417.474.621.627.839 1.251 1.68 1.881 2.516.043.056.124.119.19.121.485.009.971.006 1.523.006-.17-.24-.308-.442-.456-.638-.983-1.298-1.964-2.599-2.956-3.893-.219-.286-.197-.626-.247-.946-.192-1.236-.367-2.475-.545-3.714-.024-.172-.085-.252-.281-.241-.359.021-.718.007-1.111.007.061.409.117.785.17 1.159.17 1.167.343 2.332.501 3.5.016.111-.034.246-.09.351-.729 1.389-1.465 2.775-2.2 4.162-.03.058-.056.119-.111.238"/>
    <path fill="#bcbcbc" d="M36.0274 159.9727c-.051.036-.077.076-.102.118-.778 1.256-1.555 2.515-2.33 3.773-.047.076-.093.107-.186.106-.51-.005-1.021-.002-1.532-.002-.041-.001-.082-.004-.127-.006v-5.763h1.765v3.983c.009.002.019.006.03.009.025-.039.051-.079.076-.119.78-1.256 1.561-2.512 2.338-3.768.052-.085.108-.116.208-.116.498.006.997.004 1.496.004h.129v5.767h-1.765v-3.986zm28.4341-.6758c-.014-.373-.321-.623-.688-.609-.374.013-.646.271-.661.643-.011.269-.003.539-.003.81h-.001c0 .249-.006.498.001.748.012.407.267.665.661.679.385.011.678-.229.693-.627.022-.548.02-1.097-.002-1.644m.002 2.538c-.322.176-.633.317-.985.342-.347.025-.678-.025-.993-.175-.318-.151-.58-.369-.792-.649-.523-.694-.587-1.64-.092-2.331.75-1.047 1.735-1.17 2.857-.632.005-.066.009-.13.013-.191h1.696v5.762h-1.704v-2.126zm-18.3804-.2255c-.717.737-1.934.789-2.73.117-.033-.027-.068-.053-.127-.1v.388h-1.699v-3.819h1.692c.003.056.008.108.008.162 0 .752-.005 1.504 0 2.255 0 .122.019.254.069.362.158.343.585.523.971.428.366-.089.595-.39.595-.787v-2.415h1.703c.003.021.008.033.008.046 0 .71.009 1.421-.003 2.132-.008.465-.154.887-.487 1.231m14.6015-1.0586c-.016.461-.224.855-.579 1.162-.743.644-1.865.649-2.622.012-.031-.028-.066-.055-.128-.108v.402h-1.704v-3.818h1.705v.171c-.001.76-.001 1.521-.003 2.281 0 .159.043.303.139.431.217.293.617.417.968.299.345-.116.53-.388.53-.784.002-.747 0-1.496.002-2.244 0-.051.005-.103.009-.155h1.69c.005.026.011.043.011.058-.004.765.009 1.53-.018 2.293m9.3057-.4111h-.013c0-.328.014-.657-.005-.984-.024-.436-.337-.716-.749-.7-.323.014-.588.263-.648.618-.018.099-.025.2-.026.298-.001.512-.001 1.021.002 1.533.001.107.009.217.031.321.079.378.372.619.716.601.365-.02.638-.298.677-.691.006-.058.013-.116.013-.174.003-.274.002-.549.002-.822m1.102 1.504c-.998.867-2.647.855-3.645-.026-.915-.808-.93-2.114-.029-2.938.527-.481 1.161-.69 1.823-.696.696.003 1.289.187 1.8.599 1.016.824 1.037 2.203.051 3.061m-18.2417-.9606c-.295 0-.59.004-.885-.003-.112-.002-.147.035-.135.142.017.136.009.276.036.409.065.34.361.576.7.575.343-.003.641-.251.697-.597.026-.167.026-.336.041-.526h-.454zm1.656.801c-.48.478-1.067.723-1.736.771-.784.056-1.491-.146-2.087-.671-.398-.35-.645-.79-.682-1.327-.048-.698.232-1.261.769-1.685.8-.633 1.709-.76 2.671-.469.67.202 1.193.606 1.496 1.259.024.051.039.104.058.156h-1.693c-.013-.158-.015-.307-.037-.454-.05-.362-.326-.619-.663-.631-.369-.014-.678.2-.732.571-.052.355-.04.719-.055 1.097h3.284c0 .062.004.107-.001.151-.049.482-.253.892-.592 1.232m-4.3073 1.1106h-.93v.77h-1.736v-.771h-.144c-.23-.001-.458.001-.686-.005-.037-.001-.102-.038-.104-.063-.009-.161-.005-.322-.005-.496h.946v-3.831h1.734v3.834h.925v.562zM38.822 158.197h1.713v3.82h-1.713v-3.82zm1.713 5.762h-1.721v-1.151h1.721v1.151z"/>
  </g>
  <path fill="#d40000" d="M427.64539 362.09985zm0-2.07346zm0-2.0409zm0 1.02045zm0 4.11436zm0-2.07346zm0-4.08179z"/>
</svg>
