<?xml version="1.0" encoding="UTF-8" standalone="no"?>
<svg
   xmlns:dc="http://purl.org/dc/elements/1.1/"
   xmlns:cc="http://creativecommons.org/ns#"
   xmlns:rdf="http://www.w3.org/1999/02/22-rdf-syntax-ns#"
   xmlns:svg="http://www.w3.org/2000/svg"
   xmlns="http://www.w3.org/2000/svg"
   xmlns:sodipodi="http://sodipodi.sourceforge.net/DTD/sodipodi-0.dtd"
   xmlns:inkscape="http://www.inkscape.org/namespaces/inkscape"
   width="164.9256"
   height="200"
   id="svg2"
   version="1.1"
   inkscape:version="0.91 r13725"
   sodipodi:docname="controller.svg">
  <metadata
     id="metadata33">
    <rdf:RDF>
      <cc:Work
         rdf:about="">
        <dc:format>image/svg+xml</dc:format>
        <dc:type
           rdf:resource="http://purl.org/dc/dcmitype/StillImage" />
      </cc:Work>
    </rdf:RDF>
  </metadata>
  <sodipodi:namedview
     pagecolor="#ffffff"
     bordercolor="#666666"
     borderopacity="1"
     objecttolerance="10"
     gridtolerance="10"
     guidetolerance="10"
     inkscape:pageopacity="0"
     inkscape:pageshadow="2"
     inkscape:window-width="1366"
     inkscape:window-height="704"
     id="namedview31"
     showgrid="true"
     inkscape:zoom="1.18"
     inkscape:cx="122.90496"
     inkscape:cy="179.04782"
     inkscape:window-x="0"
     inkscape:window-y="27"
     inkscape:window-maximized="1"
     inkscape:current-layer="svg2" />
  <defs
     id="defs4">
    <clipPath
       id="a">
      <path
         d="M0 206.322h170.139V0H0v206.322z"
         id="path7" />
    </clipPath>
  </defs>
  <g
     clip-path="url(#a)"
     transform="matrix(0.96935858,0,0,-0.96935858,0,200)"
     id="g9">
    <path
       fill="#1d1d1b"
       d="M164.4359 0H5.7029c-3.137 0-5.703 2.566-5.703 5.703v194.916c0 3.137 2.566 5.703 5.703 5.703h158.733c3.137 0 5.703-2.566 5.703-5.703V5.703c0-3.137-2.566-5.703-5.703-5.703"
       id="path11" />
    <path
       d="M20.0163 153.9718V25.0208c0-3.176 2.598-5.774 5.774-5.774h118.558c3.176 0 5.774 2.598 5.774 5.774v156.281c0 3.176-2.598 5.774-5.774 5.774h-83.914"
       id="path13" />
    <path
       fill="#fff"
       d="M144.3481 18.6691H25.7901c-3.502 0-6.351 2.85-6.351 6.351v128.951h1.154V25.0201c0-2.865 2.331-5.196 5.197-5.196h118.558c2.866 0 5.197 2.331 5.197 5.196v156.282c0 2.865-2.331 5.196-5.197 5.196h-83.914v1.155h83.914c3.502 0 6.351-2.849 6.351-6.351V25.0201c0-3.501-2.849-6.351-6.351-6.351"
       id="path15" />
    <path
       d="M50.554 187.0757H25.79c-3.175 0-5.774-2.598-5.774-5.774v-27.33h40.418v33.104h-9.88z"
       id="path17"
       fill="#e20613"
       style="fill:#000000;fill-opacity:1" />
    <path
       fill="#fff"
       d="M20.5935 154.549h39.263v31.949h-34.066c-2.866 0-5.197-2.331-5.197-5.196v-26.753zm40.418-1.155h-41.573v27.908c0 3.502 2.849 6.351 6.352 6.351h35.221v-34.259zm51.084-42.7324l-5.663 5.663v8.008c0 2.54-2.078 4.619-4.619 4.619h-8.008l-5.662 5.662c-1.797 1.797-4.736 1.797-6.533 0l-5.662-5.662h-8.008c-2.541 0-4.62-2.079-4.62-4.619v-8.008l-5.662-5.663c-1.797-1.796-1.797-4.736 0-6.532l5.662-5.663v-8.008c0-2.541 2.079-4.619 4.62-4.619h8.008l5.662-5.663c1.797-1.796 4.736-1.796 6.533 0l5.662 5.663h8.008c2.541 0 4.619 2.078 4.619 4.619v8.008l5.663 5.663c1.796 1.796 1.796 4.736 0 6.532"
       id="path19" />
    <path
       fill="#fff"
       d="M67.9398 128.3739c-2.228 0-4.042-1.813-4.042-4.042v-8.247l-5.831-5.832c-.76-.76-1.178-1.775-1.178-2.858 0-1.083.418-2.098 1.178-2.858l5.831-5.831v-8.247c0-2.229 1.814-4.042 4.042-4.042h8.248l5.831-5.831c1.519-1.519 4.195-1.521 5.716 0l5.832 5.831h8.247c2.228 0 4.042 1.813 4.042 4.042v8.247l5.831 5.831c.76.76 1.179 1.775 1.179 2.858 0 1.083-.419 2.098-1.179 2.858l-5.831 5.832v8.247c0 2.229-1.814 4.042-4.042 4.042h-8.247l-5.832 5.831c-1.521 1.52-4.196 1.519-5.716 0l-5.831-5.831h-8.248zm16.937-50.123c-1.392 0-2.697.539-3.674 1.518l-5.494 5.493h-7.769c-2.866 0-5.197 2.331-5.197 5.197v7.769l-5.493 5.493c-.977.978-1.516 2.283-1.516 3.674 0 1.392.539 2.697 1.516 3.675l5.493 5.493v7.769c0 2.866 2.331 5.197 5.197 5.197h7.769l5.494 5.493c.977.978 2.283 1.516 3.674 1.516s2.697-.538 3.674-1.516l5.494-5.493h7.769c2.866 0 5.197-2.331 5.197-5.197v-7.769l5.493-5.493c.977-.978 1.516-2.283 1.516-3.675 0-1.391-.539-2.696-1.516-3.674l-5.493-5.493v-7.769c0-2.866-2.331-5.197-5.197-5.197h-7.769l-5.494-5.493c-.977-.979-2.282-1.518-3.674-1.518"
       id="path21" />
    <path
       fill="#575756"
       d="M143.9635 66.3041H26.1755c-.32 0-.578.258-.578.577 0 .32.258.578.578.578h117.788c.319 0 .577-.258.577-.578 0-.319-.258-.577-.577-.577m0-9.5992H26.1755c-.32 0-.578.258-.578.577 0 .32.258.578.578.578h117.788c.319 0 .577-.258.577-.578 0-.319-.258-.577-.577-.577m0-9.5991H26.1755c-.32 0-.578.258-.578.577 0 .32.258.578.578.578h117.788c.319 0 .577-.258.577-.578 0-.319-.258-.577-.577-.577m0-9.5992H26.1755c-.32 0-.578.258-.578.577 0 .32.258.578.578.578h117.788c.319 0 .577-.258.577-.578 0-.319-.258-.577-.577-.577m0-9.5992H26.1755c-.32 0-.578.258-.578.577 0 .32.258.578.578.578h117.788c.319 0 .577-.258.577-.578 0-.319-.258-.577-.577-.577m-1.4434 152.8171h-75.061c-.319 0-.578.258-.578.577 0 .32.259.578.578.578h75.061c.319 0 .577-.258.577-.578 0-.319-.258-.577-.577-.577m0-5.3702h-75.061c-.319 0-.578.258-.578.577 0 .32.259.578.578.578h75.061c.319 0 .577-.258.577-.578 0-.319-.258-.577-.577-.577m0-5.3696h-75.061c-.319 0-.578.258-.578.577 0 .32.259.578.578.578h75.061c.319 0 .577-.258.577-.578 0-.319-.258-.577-.577-.577m0-5.3697h-75.061c-.319 0-.578.258-.578.577 0 .32.259.578.578.578h75.061c.319 0 .577-.258.577-.578 0-.319-.258-.577-.577-.577m0-5.3696h-75.061c-.319 0-.578.258-.578.577 0 .32.259.578.578.578h75.061c.319 0 .577-.258.577-.578 0-.319-.258-.577-.577-.577m0-5.3697h-75.061c-.319 0-.578.258-.578.577 0 .32.259.578.578.578h75.061c.319 0 .577-.258.577-.578 0-.319-.258-.577-.577-.577"
       id="path23" />
    <path
       fill="#1d1d1b"
       d="M98.9268 107.3954c0-7.76-6.29-14.05-14.05-14.05-7.76 0-14.05 6.29-14.05 14.05 0 7.76 6.29 14.05 14.05 14.05 7.76 0 14.05-6.29 14.05-14.05"
       id="path25" />
    <path
       fill="#fff"
       d="M84.8771 120.8678c-7.429 0-13.473-6.043-13.473-13.472 0-7.429 6.044-13.473 13.473-13.473 7.429 0 13.472 6.044 13.472 13.473 0 7.429-6.043 13.472-13.472 13.472m0-28.099c-8.065 0-14.628 6.561-14.628 14.627 0 8.065 6.563 14.627 14.628 14.627 8.065 0 14.627-6.562 14.627-14.627 0-8.066-6.562-14.627-14.627-14.627"
       id="path27" />
    <path
       fill="#fff"
       d="M84.8771 114.8971c-4.136 0-7.502-3.365-7.502-7.502 0-4.136 3.366-7.502 7.502-7.502 4.136 0 7.502 3.366 7.502 7.502 0 4.137-3.366 7.502-7.502 7.502m0-16.159c-4.774 0-8.657 3.884-8.657 8.657s3.883 8.657 8.657 8.657c4.773 0 8.656-3.884 8.656-8.657s-3.883-8.657-8.656-8.657"
       id="path29" />
  </g>
</svg>
